<?xml version="1.0" encoding="utf-8"?>
<!-- Generator: Adobe Illustrator 25.0.1, SVG Export Plug-In . SVG Version: 6.00 Build 0)  -->
<svg version="1.1" id="Layer_1" xmlns="http://www.w3.org/2000/svg" xmlns:xlink="http://www.w3.org/1999/xlink" x="0px" y="0px"
	 viewBox="0 0 603.78 130.39" style="enable-background:new 0 0 603.78 130.39;" xml:space="preserve">
<style type="text/css">
	.st0{fill:#706F6F;}
	.st1{fill:#71AF28;}
</style>
<g>
	<path class="st0" d="M125.61,76.14c5.74-7.11,8.1-17,8.1-29.18c0-34.28-8.34-46.95-52.5-46.95H0V129.9h27.48V89.34h32.1
		l38.47,40.56h34.91L93.41,88.64C108.2,88.64,119.12,84.17,125.61,76.14z M27.48,65.94V23.57h59.45c15.29,0,19.46,5.78,19.46,21.54
		c0,15.98-5.1,20.84-19.22,20.84H27.48z"/>
	<path class="st0" d="M365.69,53.22c-15.75,0-21.54-4.64-21.54-15.75c0-10.19,8.34-13.89,21.07-13.89h72.87V-0.06h-69.63
		c-40.68,0-51.42,17.6-51.42,38.21c0,31.27,20.19,38.45,49.33,38.45h30.34c15.76,0,22.93,4.63,22.93,15.75
		c0,10.19-8.34,13.9-21.08,13.9h-79.91v23.62h77.6c42.11,0,50.72-18.3,50.72-38.92c0-31.26-22.73-37.74-51.87-37.74H365.69z"/>
	<path class="st0" d="M553.14,130.03c31.5,0,50.64-7.1,50.64-47.55V0.02H576.6v84.31c0,16.67-7.1,21.93-21.31,21.93h-33.05
		c-14.2,0-21.3-5.25-21.3-21.93V0.02h-27.18v82.46c0,40.45,19.14,47.55,50.64,47.55H553.14z"/>
	<rect x="162.49" y="-0.06" class="st1" width="125.53" height="23.56"/>
	<rect x="162.49" y="53.13" class="st1" width="125.53" height="23.55"/>
	<rect x="162.49" y="106.31" class="st1" width="125.53" height="23.56"/>
</g>
</svg>
