<?xml version="1.0" encoding="utf-8"?>
<!-- Generator: Adobe Illustrator 23.0.0, SVG Export Plug-In . SVG Version: 6.00 Build 0)  -->
<svg version="1.1" id="_x31_7" xmlns="http://www.w3.org/2000/svg" xmlns:xlink="http://www.w3.org/1999/xlink" x="0px" y="0px"
	 viewBox="0 0 30 30" style="enable-background:new 0 0 30 30;" xml:space="preserve">
<style type="text/css">
	.st0{fill:none;stroke:#A50034;stroke-width:2;stroke-linejoin:round;stroke-miterlimit:10;}
</style>
<g>
	<path class="st0" d="M15.67,21.45l-4.45,4.45c-1.47,1.47-3.86,1.47-5.34,0l-1.78-1.78c-1.47-1.47-1.47-3.86,0-5.34l6.67-6.67
		c1.47-1.47,3.86-1.47,5.34,0l1.78,1.78c0.31,0.31,0.56,0.66,0.74,1.04"/>
	<path class="st0" d="M14.33,8.55l4.45-4.45c1.47-1.47,3.86-1.47,5.34,0l1.78,1.78c1.47,1.47,1.47,3.86,0,5.34l-6.67,6.67
		c-1.47,1.47-3.86,1.47-5.34,0l-1.78-1.78c-0.31-0.31-0.56-0.66-0.74-1.04"/>
</g>
</svg>
